MenuLevelSelector/Binaries/Win64/MenuLevelSelector-Win64-Shipping.exe	2020-10-06T16:58:28.481Z
Engine/Extras/Redist/en-us/UE4PrereqSetup_x64.exe	2020-07-01T22:09:08.556Z
Engine/Binaries/ThirdParty/DbgHelp/dbghelp.dll	2020-07-01T21:24:27.736Z
Engine/Binaries/ThirdParty/PhysX3/Win64/VS2015/PxFoundation_x64.dll	2020-07-01T21:28:19.900Z
Engine/Binaries/ThirdParty/PhysX3/Win64/VS2015/PxPvdSDK_x64.dll	2020-07-01T21:28:19.907Z
Engine/Binaries/ThirdParty/PhysX3/Win64/VS2015/PhysX3_x64.dll	2020-07-01T21:28:08.700Z
Engine/Binaries/ThirdParty/PhysX3/Win64/VS2015/PhysX3Cooking_x64.dll	2020-07-01T21:28:12.061Z
Engine/Binaries/ThirdParty/PhysX3/Win64/VS2015/PhysX3Common_x64.dll	2020-07-01T21:28:12.013Z
Engine/Binaries/ThirdParty/PhysX3/Win64/VS2015/APEX_Clothing_x64.dll	2020-07-01T21:27:35.725Z
Engine/Binaries/ThirdParty/PhysX3/Win64/VS2015/APEX_Legacy_x64.dll	2020-07-01T21:28:08.498Z
Engine/Binaries/ThirdParty/PhysX3/Win64/VS2015/ApexFramework_x64.dll	2020-07-01T21:28:08.642Z
Engine/Binaries/ThirdParty/PhysX3/Win64/VS2015/NvCloth_x64.dll	2020-07-01T21:28:08.683Z
Engine/Binaries/ThirdParty/Ogg/Win64/VS2015/libogg_64.dll	2020-07-01T21:26:16.103Z
Engine/Binaries/ThirdParty/Vorbis/Win64/VS2015/libvorbis_64.dll	2020-07-01T21:29:05.769Z
Engine/Binaries/ThirdParty/Vorbis/Win64/VS2015/libvorbisfile_64.dll	2020-07-01T21:29:05.770Z
Engine/Binaries/ThirdParty/NVIDIA/NVaftermath/Win64/GFSDK_Aftermath_Lib.x64.dll	2020-09-03T10:45:54.641Z
Engine/Binaries/ThirdParty/Windows/XAudio2_9/x64/xaudio2_9redist.dll	2020-07-01T21:29:15.000Z
MenuLevelSelector.exe	2020-10-06T16:58:51.198Z
